


EVENT   1
 PAGE   1
  281(0)
  250(bytes(0x04,0x08,0x6f,0x3a,0x0c,0x52,0x50,0x47,0x3a,0x3a,0x53,0x45,0x08,0x3a,0x0a,0x40,0x6e,0x61,0x6d,0x65,0x49,0x22,0x09,0x4d,0x6f,0x76,0x65,0x06,0x3a,0x06,0x45,0x54,0x3a,0x0b,0x40,0x70,0x69,0x74,0x63,0x68,0x69,0x69,0x3a,0x0c,0x40,0x76,0x6f,0x6c,0x75,0x6d,0x65,0x69,0x55))
  TeleportPlayer(0,183,1,7,0,0)
  0()



EVENT   2
 PAGE   1
  281(0)
  250(bytes(0x04,0x08,0x6f,0x3a,0x0c,0x52,0x50,0x47,0x3a,0x3a,0x53,0x45,0x08,0x3a,0x0a,0x40,0x6e,0x61,0x6d,0x65,0x49,0x22,0x09,0x4d,0x6f,0x76,0x65,0x06,0x3a,0x06,0x45,0x54,0x3a,0x0b,0x40,0x70,0x69,0x74,0x63,0x68,0x69,0x69,0x3a,0x0c,0x40,0x76,0x6f,0x6c,0x75,0x6d,0x65,0x69,0x55))
  TeleportPlayer(0,183,1,7,0,0)
  0()



EVENT   3
 PAGE   1
  281(0)
  250(bytes(0x04,0x08,0x6f,0x3a,0x0c,0x52,0x50,0x47,0x3a,0x3a,0x53,0x45,0x08,0x3a,0x0a,0x40,0x6e,0x61,0x6d,0x65,0x49,0x22,0x09,0x4d,0x6f,0x76,0x65,0x06,0x3a,0x06,0x45,0x54,0x3a,0x0b,0x40,0x70,0x69,0x74,0x63,0x68,0x69,0x69,0x3a,0x0c,0x40,0x76,0x6f,0x6c,0x75,0x6d,0x65,0x69,0x55))
  TeleportPlayer(0,183,1,7,0,0)
  0()



EVENT   4
 PAGE   1
  281(0)
  250(bytes(0x04,0x08,0x6f,0x3a,0x0c,0x52,0x50,0x47,0x3a,0x3a,0x53,0x45,0x08,0x3a,0x0a,0x40,0x6e,0x61,0x6d,0x65,0x49,0x22,0x09,0x4d,0x6f,0x76,0x65,0x06,0x3a,0x06,0x45,0x54,0x3a,0x0b,0x40,0x70,0x69,0x74,0x63,0x68,0x69,0x69,0x3a,0x0c,0x40,0x76,0x6f,0x6c,0x75,0x6d,0x65,0x69,0x55))
  TeleportPlayer(0,183,1,7,0,0)
  0()



EVENT   5
 PAGE   1
  281(0)
  250(bytes(0x04,0x08,0x6f,0x3a,0x0c,0x52,0x50,0x47,0x3a,0x3a,0x53,0x45,0x08,0x3a,0x0a,0x40,0x6e,0x61,0x6d,0x65,0x49,0x22,0x09,0x4d,0x6f,0x76,0x65,0x06,0x3a,0x06,0x45,0x54,0x3a,0x0b,0x40,0x70,0x69,0x74,0x63,0x68,0x69,0x69,0x3a,0x0c,0x40,0x76,0x6f,0x6c,0x75,0x6d,0x65,0x69,0x55))
  TeleportPlayer(0,183,1,7,0,0)
  0()



EVENT   6
 PAGE   1
  281(0)
  250(bytes(0x04,0x08,0x6f,0x3a,0x0c,0x52,0x50,0x47,0x3a,0x3a,0x53,0x45,0x08,0x3a,0x0a,0x40,0x6e,0x61,0x6d,0x65,0x49,0x22,0x09,0x4d,0x6f,0x76,0x65,0x06,0x3a,0x06,0x45,0x54,0x3a,0x0b,0x40,0x70,0x69,0x74,0x63,0x68,0x69,0x69,0x3a,0x0c,0x40,0x76,0x6f,0x6c,0x75,0x6d,0x65,0x69,0x55))
  TeleportPlayer(0,183,1,20,0,0)
  0()



EVENT   7
 PAGE   1
  281(0)
  250(bytes(0x04,0x08,0x6f,0x3a,0x0c,0x52,0x50,0x47,0x3a,0x3a,0x53,0x45,0x08,0x3a,0x0a,0x40,0x6e,0x61,0x6d,0x65,0x49,0x22,0x09,0x4d,0x6f,0x76,0x65,0x06,0x3a,0x06,0x45,0x54,0x3a,0x0b,0x40,0x70,0x69,0x74,0x63,0x68,0x69,0x69,0x3a,0x0c,0x40,0x76,0x6f,0x6c,0x75,0x6d,0x65,0x69,0x55))
  TeleportPlayer(0,183,1,21,0,0)
  0()



EVENT   8
 PAGE   1
  0()



EVENT   9
 PAGE   1
  0()



EVENT   10
 PAGE   1
  0()



EVENT   11
 PAGE   1
  0()



EVENT   12
 PAGE   1
  250(bytes(0x04,0x08,0x6f,0x3a,0x0c,0x52,0x50,0x47,0x3a,0x3a,0x53,0x45,0x08,0x3a,0x0a,0x40,0x6e,0x61,0x6d,0x65,0x49,0x22,0x09,0x4d,0x6f,0x76,0x65,0x06,0x3a,0x06,0x45,0x54,0x3a,0x0b,0x40,0x70,0x69,0x74,0x63,0x68,0x69,0x69,0x3a,0x0c,0x40,0x76,0x6f,0x6c,0x75,0x6d,0x65,0x69,0x55))
  TeleportPlayer(0,222,32,21,0,0)
  0()



EVENT   13
 PAGE   1
  250(bytes(0x04,0x08,0x6f,0x3a,0x0c,0x52,0x50,0x47,0x3a,0x3a,0x53,0x45,0x08,0x3a,0x0a,0x40,0x6e,0x61,0x6d,0x65,0x49,0x22,0x09,0x4d,0x6f,0x76,0x65,0x06,0x3a,0x06,0x45,0x54,0x3a,0x0b,0x40,0x70,0x69,0x74,0x63,0x68,0x69,0x69,0x3a,0x0c,0x40,0x76,0x6f,0x6c,0x75,0x6d,0x65,0x69,0x55))
  TeleportPlayer(0,222,33,21,0,0)
  0()



EVENT   14
 PAGE   1
  250(bytes(0x04,0x08,0x6f,0x3a,0x0c,0x52,0x50,0x47,0x3a,0x3a,0x53,0x45,0x08,0x3a,0x0a,0x40,0x6e,0x61,0x6d,0x65,0x49,0x22,0x09,0x4d,0x6f,0x76,0x65,0x06,0x3a,0x06,0x45,0x54,0x3a,0x0b,0x40,0x70,0x69,0x74,0x63,0x68,0x69,0x69,0x3a,0x0c,0x40,0x76,0x6f,0x6c,0x75,0x6d,0x65,0x69,0x55))
  TeleportPlayer(0,222,9,15,0,0)
  0()



EVENT   15
 PAGE   1
  250(bytes(0x04,0x08,0x6f,0x3a,0x0c,0x52,0x50,0x47,0x3a,0x3a,0x53,0x45,0x08,0x3a,0x0a,0x40,0x6e,0x61,0x6d,0x65,0x49,0x22,0x09,0x4d,0x6f,0x76,0x65,0x06,0x3a,0x06,0x45,0x54,0x3a,0x0b,0x40,0x70,0x69,0x74,0x63,0x68,0x69,0x69,0x3a,0x0c,0x40,0x76,0x6f,0x6c,0x75,0x6d,0x65,0x69,0x55))
  TeleportPlayer(0,222,10,15,0,0)
  0()



EVENT   16
 PAGE   1
  250(bytes(0x04,0x08,0x6f,0x3a,0x0c,0x52,0x50,0x47,0x3a,0x3a,0x53,0x45,0x08,0x3a,0x0a,0x40,0x6e,0x61,0x6d,0x65,0x49,0x22,0x09,0x4d,0x6f,0x76,0x65,0x06,0x3a,0x06,0x45,0x54,0x3a,0x0b,0x40,0x70,0x69,0x74,0x63,0x68,0x69,0x69,0x3a,0x0c,0x40,0x76,0x6f,0x6c,0x75,0x6d,0x65,0x69,0x55))
  TeleportPlayer(0,222,34,44,0,0)
  0()



EVENT   17
 PAGE   1
  250(bytes(0x04,0x08,0x6f,0x3a,0x0c,0x52,0x50,0x47,0x3a,0x3a,0x53,0x45,0x08,0x3a,0x0a,0x40,0x6e,0x61,0x6d,0x65,0x49,0x22,0x09,0x4d,0x6f,0x76,0x65,0x06,0x3a,0x06,0x45,0x54,0x3a,0x0b,0x40,0x70,0x69,0x74,0x63,0x68,0x69,0x69,0x3a,0x0c,0x40,0x76,0x6f,0x6c,0x75,0x6d,0x65,0x69,0x55))
  TeleportPlayer(0,222,35,44,0,0)
  0()



EVENT   18
 PAGE   1
  281(0)
  250(bytes(0x04,0x08,0x6f,0x3a,0x0c,0x52,0x50,0x47,0x3a,0x3a,0x53,0x45,0x08,0x3a,0x0a,0x40,0x6e,0x61,0x6d,0x65,0x49,0x22,0x09,0x4d,0x6f,0x76,0x65,0x06,0x3a,0x06,0x45,0x54,0x3a,0x0b,0x40,0x70,0x69,0x74,0x63,0x68,0x69,0x69,0x3a,0x0c,0x40,0x76,0x6f,0x6c,0x75,0x6d,0x65,0x69,0x55))
  TeleportPlayer(0,183,1,20,0,0)
  0()



EVENT   19
 PAGE   1
  281(0)
  250(bytes(0x04,0x08,0x6f,0x3a,0x0c,0x52,0x50,0x47,0x3a,0x3a,0x53,0x45,0x08,0x3a,0x0a,0x40,0x6e,0x61,0x6d,0x65,0x49,0x22,0x09,0x4d,0x6f,0x76,0x65,0x06,0x3a,0x06,0x45,0x54,0x3a,0x0b,0x40,0x70,0x69,0x74,0x63,0x68,0x69,0x69,0x3a,0x0c,0x40,0x76,0x6f,0x6c,0x75,0x6d,0x65,0x69,0x55))
  TeleportPlayer(0,183,1,20,0,0)
  0()



EVENT   20
 PAGE   1
  281(0)
  250(bytes(0x04,0x08,0x6f,0x3a,0x0c,0x52,0x50,0x47,0x3a,0x3a,0x53,0x45,0x08,0x3a,0x0a,0x40,0x6e,0x61,0x6d,0x65,0x49,0x22,0x09,0x4d,0x6f,0x76,0x65,0x06,0x3a,0x06,0x45,0x54,0x3a,0x0b,0x40,0x70,0x69,0x74,0x63,0x68,0x69,0x69,0x3a,0x0c,0x40,0x76,0x6f,0x6c,0x75,0x6d,0x65,0x69,0x55))
  TeleportPlayer(0,183,1,21,0,0)
  0()



EVENT   21
 PAGE   1
  ShowMessageFace("",0,0,2,1)
  ShowMessage("【中年】")
  ShowMessage("こんな高級住宅街に居を構えるくらいにはなりたいねぇ……")
  ShowMessage("一攫千金のオイシイ話はないかなぁ。")
  355("actor_label_jump")
  EndEventProcessing()
  DefineLabel("143")
  ShowMessageFace("eva_fc1",2,0,2,2)
  ShowMessage("【エヴァ】")
  ShowMessage("なかなかないわよねぇ……")
  EndEventProcessing()
  0()



EVENT   22
 PAGE   1
  ShowMessageFace("centa_fc1",0,0,2,1)
  ShowMessage("【ケンタウロス娘】")
  ShowMessage("道に迷った！")
  ShowMessage("ここはどこの通りだ……？")
  0()



EVENT   23
 PAGE   1
  ShowMessageFace("",0,0,2,1)
  ShowMessage("【老人】")
  ShowMessage("レミナの技術は、世界を牽引しておる。")
  ShowMessage("この町こそが、まさに世界の最先端なのじゃ。")
  0()



EVENT   24
 PAGE   1
  ShowMessageFace("",0,0,2,1)
  ShowMessage("【少年】")
  ShowMessage("ボクも、大きくなったら勇者になるんだ！")
  355("actor_label_jump")
  EndEventProcessing()
  DefineLabel("45")
  ShowMessageFace("alicetromeria_fc1",4,0,2,2)
  ShowMessage("【アリストロメリア】")
  ShowMessage("うふふっ、やめた方がいいですわよ……")
  EndEventProcessing()
  DefineLabel("538")
  ShowMessageFace("heinrich_fc1",7,0,2,3)
  ShowMessage("【ハインリヒ】")
  ShowMessage("世界を救うのは、君かもしれないね。")
  EndEventProcessing()
  0()



EVENT   25
 PAGE   1
  ShowMessageFace("",0,0,2,1)
  ShowMessage("【少女】")
  ShowMessage("勇者になるなんて……")
  ShowMessage("そんな危ないこと、やめさせないと……")
  355("actor_label_jump")
  EndEventProcessing()
  DefineLabel("525")
  ShowMessageFace("sonia_fc1",4,0,2,2)
  ShowMessage("【ソニア】")
  ShowMessage("昔の私みたいな子がいるわね……")
  ShowMessageFace("",0,0,2,3)
  ShowMessage("【少女】")
  ShowMessage("未来の私みたいなお姉ちゃんがいる……")
  EndEventProcessing()
  0()



EVENT   26
 PAGE   1
  ShowMessageFace("nekomata_fc1",2,0,2,1)
  ShowMessage("【ねこまた】")
  ShowMessage("うにゃ～♪")
  355("actor_label_jump")
  EndEventProcessing()
  DefineLabel("222")
  ShowMessageFace("nekomata_fc1",2,0,2,2)
  ShowMessage("【たま】")
  ShowMessage("にゃっ♪")
  EndEventProcessing()
  0()



EVENT   27
 PAGE   1
  ShowMessageFace("trickfairy_fc1",0,0,2,1)
  ShowMessage("【トリックフェアリー】")
  ShowMessage("今日は、どんなイタズラしようかなー？")
  355("actor_label_jump")
  EndEventProcessing()
  DefineLabel("315")
  ShowMessageFace("queenfairy_fc1",0,0,2,2)
  ShowMessage("【エアリー】")
  ShowMessage("どこの町にも、イタズラっ子はいるものですね……")
  EndEventProcessing()
  0()



EVENT   28
 PAGE   1
  ShowMessageFace("succubuses_fc5",1,0,2,1)
  ShowMessage("【サキュバス】")
  ShowMessage("ねぇ、私と遊ぼうよ……♪")
  ShowChoices(strings("遊ぶ","遊ばない"),2)
  IfPlayerPicksChoice(0,null)
   If(0,6,0)
    ShowMessageFace("sonia_fc2",6,0,2,2)
    ShowMessage("【ソニア】")
    ShowMessage("キー！")
    ShowMessageFace("succubuses_fc5",2,0,2,3)
    ShowMessage("【サキュバス】")
    ShowMessage("なぁんだ、お邪魔虫も一緒かぁ……じゃぁね。")
    0()
   Else()
    ShowMessageFace("",0,0,2,4)
    ShowMessage("仲間達から冷たい視線を感じる……")
    ShowMessage("ルカは遊ぶのを諦めた。")
    0()
   EndIf()
   0()
  IfPlayerPicksChoice(1,null)
   ShowMessageFace("succubuses_fc5",2,0,2,5)
   ShowMessage("【サキュバス】")
   ShowMessage("な～んだ、残念……")
   0()
  404()
  0()



EVENT   29
 PAGE   1
  ShowMessageFace("",0,0,2,1)
  ShowMessage("【あらくれ】")
  ShowMessage("おい、「あらくれ」と「ごろつき」の違いを知っているか？")
  ShowMessage("「あらくれ」とは荒々しい男の事であり、性質の善悪は関係ない。")
  ShowMessageFace("",0,0,2,2)
  ShowMessage("【あらくれ】")
  ShowMessage("しかし「ごろつき」は、その性は悪にして人としての器も小さい。")
  ShowMessage("だから、俺をごろつきと一緒にするなよ。")
  0()



EVENT   30
 PAGE   1
  ShowMessageFace("",0,0,2,1)
  ShowMessage("【男】")
  ShowMessage("勇者ハインリヒは、いつ魔王を倒してくれるのかね……")
  ShowMessage("このままじゃ、世界がどんどんメチャクチャになっていくよ。")
  355("actor_label_jump")
  EndEventProcessing()
  DefineLabel("45")
  ShowMessageFace("alicetromeria_fc1",4,0,2,2)
  ShowMessage("【アリストロメリア】")
  ShowMessage("それが愉しいのではないですか……")
  EndEventProcessing()
  DefineLabel("538")
  ShowMessageFace("heinrich_fc1",7,0,2,3)
  ShowMessage("【ハインリヒ】")
  ShowMessage("皆が僕に期待を寄せている……")
  ShowMessage("なんとしても、魔王を討たなきゃいけないね。")
  EndEventProcessing()
  0()



EVENT   31
 PAGE   1
  ShowMessageFace("kumo_fc1",0,0,2,1)
  ShowMessage("【クモ娘】")
  ShowMessage("狭い路地は、落ち着くよね～♪")
  355("actor_label_jump")
  EndEventProcessing()
  DefineLabel("331")
  ShowMessageFace("tutigumo_fc1",0,0,2,2)
  ShowMessage("【ミズキ】")
  ShowMessage("そうですね……")
  EndEventProcessing()
  DefineLabel("332")
  ShowMessageFace("alakneload_fc1",1,0,2,3)
  ShowMessage("【アラーニェ】")
  ShowMessage("同感だな……")
  EndEventProcessing()
  0()



EVENT   32
 PAGE   1
  ShowMessageFace("",0,0,2,1)
  ShowMessage("【町娘】")
  ShowMessage("この路地の先には行かない方がいいですよ。")
  ShowMessage("なんだかガラが悪いですから……")
  0()



EVENT   33
 PAGE   1
  ShowMessageFace("",0,0,2,1)
  ShowMessage("【若い母親】")
  ShowMessage("この町を一歩出れば、地獄のような光景が広がっているなんて……")
  ShowMessage("なんだか、嘘のようですね。")
  355("actor_label_jump")
  EndEventProcessing()
  DefineLabel("45")
  ShowMessageFace("alicetromeria_fc1",4,0,2,2)
  ShowMessage("【アリストロメリア】")
  ShowMessage("大して違いはありませんわ……")
  EndEventProcessing()
  0()



EVENT   34
 PAGE   1
  ShowMessageFace("",0,0,2,1)
  ShowMessage("【若い娘】")
  ShowMessage("レミナ王には、エディナ姫という一人娘がいるの。")
  ShowMessage("とってもお美しく、素敵な方よ。")
  0()



EVENT   35
 PAGE   1
  ShowMessageFace("",0,0,2,1)
  ShowMessage("【少女】")
  ShowMessage("エディナ姫って、そろそろ結婚適齢期なんだよね？")
  ShowMessage("誰と結婚するんだろうね？")
  ShowMessageFace("",0,0,2,2)
  ShowMessage("【少女】")
  ShowMessage("あたし、勇者ハインリヒがお似合いだと思うの！")
  ShowMessage("エディナ姫は、勇者ハインリヒと結婚したらいいと思うの！")
  355("actor_label_jump")
  EndEventProcessing()
  DefineLabel("538")
  ShowMessageFace("heinrich_fc1",7,0,2,3)
  ShowMessage("【ハインリヒ】")
  ShowMessage("ははっ……")
  ShowMessage("姫には、もっと相応しい方がいるはずだよ。")
  EndEventProcessing()
  0()



EVENT   36
 PAGE   1
  250(bytes(0x04,0x08,0x6f,0x3a,0x0c,0x52,0x50,0x47,0x3a,0x3a,0x53,0x45,0x08,0x3a,0x0a,0x40,0x6e,0x61,0x6d,0x65,0x49,0x22,0x0a,0x49,0x74,0x65,0x6d,0x31,0x06,0x3a,0x06,0x45,0x54,0x3a,0x0b,0x40,0x70,0x69,0x74,0x63,0x68,0x69,0x69,0x3a,0x0c,0x40,0x76,0x6f,0x6c,0x75,0x6d,0x65,0x69,0x55))
  ChangeSelfSwitch("A",0)
  ChangeInventory_Item(69,0,0,1)
  0()
 PAGE   2
  // condition: self-switch A is ON
  0()



EVENT   37
 PAGE   1
  // condition: switch 1102 is ON
  // condition: switch 1103 is ON
  241(bytes(0x04,0x08,0x6f,0x3a,0x0d,0x52,0x50,0x47,0x3a,0x3a,0x42,0x47,0x4d,0x08,0x3a,0x0a,0x40,0x6e,0x61,0x6d,0x65,0x49,0x22,0x13,0x73,0x63,0x65,0x6e,0x65,0x5f,0x6f,0x64,0x61,0x79,0x61,0x6b,0x61,0x31,0x06,0x3a,0x06,0x45,0x54,0x3a,0x0c,0x40,0x76,0x6f,0x6c,0x75,0x6d,0x65,0x69,0x69,0x3a,0x0b,0x40,0x70,0x69,0x74,0x63,0x68,0x69,0x69))
  ShowMessageFace("youko_fc1",0,0,2,1)
  ShowMessage("【かむろ】")
  ShowMessage("きつね先輩……")
  ShowMessage("なんで、虹は七色なんですか？")
  ShowMessageFace("kamuro_fc1",0,0,2,2)
  ShowMessage("【きつね】")
  ShowMessage("えっと、それはね……")
  ShowMessageFace("kamuro_fc1",2,0,2,3)
  ShowMessage("【きつね】")
  ShowMessage("……って、かむろちゃん！　なんだか変だよ！")
  ShowMessageFace("youko_fc1",2,0,2,4)
  ShowMessage("【かむろ】")
  ShowMessage("まさか、私達……")
  ShowMessageFace("kamuro_fc1",2,0,2,5)
  ShowMessage("【きつね】")
  ShowMessage("入れ替わってる～！？")
  241(bytes(0x04,0x08,0x6f,0x3a,0x0d,0x52,0x50,0x47,0x3a,0x3a,0x42,0x47,0x4d,0x08,0x3a,0x0a,0x40,0x6e,0x61,0x6d,0x65,0x49,0x22,0x0a,0x63,0x69,0x74,0x79,0x31,0x06,0x3a,0x06,0x45,0x54,0x3a,0x0c,0x40,0x76,0x6f,0x6c,0x75,0x6d,0x65,0x69,0x69,0x3a,0x0b,0x40,0x70,0x69,0x74,0x63,0x68,0x69,0x69))
  0()
 PAGE   2
  // condition: party contains actor #102
  0()
 PAGE   3
  // condition: party contains actor #103
  0()



EVENT   38
 PAGE   1
  // condition: switch 1102 is ON
  // condition: switch 1103 is ON
  241(bytes(0x04,0x08,0x6f,0x3a,0x0d,0x52,0x50,0x47,0x3a,0x3a,0x42,0x47,0x4d,0x08,0x3a,0x0a,0x40,0x6e,0x61,0x6d,0x65,0x49,0x22,0x13,0x73,0x63,0x65,0x6e,0x65,0x5f,0x6f,0x64,0x61,0x79,0x61,0x6b,0x61,0x31,0x06,0x3a,0x06,0x45,0x54,0x3a,0x0c,0x40,0x76,0x6f,0x6c,0x75,0x6d,0x65,0x69,0x69,0x3a,0x0b,0x40,0x70,0x69,0x74,0x63,0x68,0x69,0x69))
  ShowMessageFace("youko_fc1",0,0,2,1)
  ShowMessage("【かむろ】")
  ShowMessage("きつね先輩……")
  ShowMessage("なんで、虹は七色なんですか？")
  ShowMessageFace("kamuro_fc1",0,0,2,2)
  ShowMessage("【きつね】")
  ShowMessage("えっと、それはね……")
  ShowMessageFace("kamuro_fc1",2,0,2,3)
  ShowMessage("【きつね】")
  ShowMessage("……って、かむろちゃん！　なんだか変だよ！")
  ShowMessageFace("youko_fc1",2,0,2,4)
  ShowMessage("【かむろ】")
  ShowMessage("まさか、私達……")
  ShowMessageFace("kamuro_fc1",2,0,2,5)
  ShowMessage("【きつね】")
  ShowMessage("入れ替わってる～！？")
  241(bytes(0x04,0x08,0x6f,0x3a,0x0d,0x52,0x50,0x47,0x3a,0x3a,0x42,0x47,0x4d,0x08,0x3a,0x0a,0x40,0x6e,0x61,0x6d,0x65,0x49,0x22,0x0a,0x63,0x69,0x74,0x79,0x31,0x06,0x3a,0x06,0x45,0x54,0x3a,0x0c,0x40,0x76,0x6f,0x6c,0x75,0x6d,0x65,0x69,0x69,0x3a,0x0b,0x40,0x70,0x69,0x74,0x63,0x68,0x69,0x69))
  0()
 PAGE   2
  // condition: party contains actor #102
  0()
 PAGE   3
  // condition: party contains actor #103
  0()
